My Data Analysis Portfolio - Model Evaluation
…
We can create one function that will create the recipe and train the model using the workflow() and fit() functions.

flu_fit <-
  flu_wflow %>% 
  fit(data = train_data)

To check the fitted model, the extract_fit_parsnip() function will display the fitted model.

flu_fit %>% 
  extract_fit_parsnip() %>% 
  tidy()

# A tibble: 32 × 5
   term                  estimate std.error statistic p.value
   <chr>                    <dbl>     <dbl>     <dbl>   <dbl>
 1 (Intercept)            -2.83      9.07      -0.312  0.755 
 2 BodyTemp               -0.0101    0.0921    -0.109  0.913 
 3 SwollenLymphNodes_Yes  -0.435     0.235     -1.85   0.0649
 4 ChestCongestion_Yes     0.277     0.252      1.10   0.271 
 5 ChillsSweats_Yes        0.333     0.355      0.939  0.348 
 6 NasalCongestion_Yes     0.233     0.300      0.778  0.437 
 7 Sneeze_Yes              0.115     0.253      0.455  0.649 
 8 Fatigue_Yes             0.288     0.460      0.626  0.531 
 9 SubjectiveFever_Yes     0.402     0.271      1.48   0.138 
10 Headache_Yes            0.644     0.367      1.75   0.0794
# … with 22 more rows

Predict from trained model

Next, we can use the test_data set to predict from the trained model by using the flu_fit.

predict(flu_fit, test_data)

# A tibble: 183 × 1
   .pred_class
   <fct>      
 1 No         
 2 Yes        
 3 No         
 4 No         
 5 No         
 6 No         
 7 No         
 8 No         
 9 No         
10 Yes        
# … with 173 more rows
…
bodytemp_lm_workflow <- workflow() %>% #combine model and recipe to make workflow
  add_model(lm_mod) %>% 
  add_recipe(recipe_bodytemp)

Data fitting

set.seed(626)
bodytemp_fit <- bodytemp_lm_workflow %>% 
  fit(data = train_data)
tidy(bodytemp_fit)

# A tibble: 32 × 5
   term                  estimate std.error statistic   p.value
   <chr>                    <dbl>     <dbl>     <dbl>     <dbl>
 1 (Intercept)            98.2        0.352   279.    0        
 2 SwollenLymphNodes_Yes  -0.104      0.108    -0.960 0.337    
 3 ChestCongestion_Yes     0.0566     0.114     0.496 0.620    
 4 ChillsSweats_Yes        0.279      0.151     1.84  0.0664   
 5 NasalCongestion_Yes    -0.213      0.133    -1.60  0.110    
 6 Sneeze_Yes             -0.400      0.116    -3.44  0.000627 
 7 Fatigue_Yes             0.375      0.187     2.00  0.0461   
 8 SubjectiveFever_Yes     0.517      0.122     4.25  0.0000259
 9 Headache_Yes           -0.0614     0.151    -0.406 0.685    
10 Weakness_Mild          -0.0473     0.226    -0.209 0.834    
# … with 22 more rows

Model evaluation on training data

bodytemp_aug <- augment(bodytemp_fit, train_data)
bodytemp_aug %>% select(BodyTemp, .pred)

# A tibble: 547 × 2
   BodyTemp .pred
      <dbl> <dbl>
 1     98.5  99.4
 2     98.6  98.5
 3     98.5  99.0
 4    101.   99.5
 5     98.5  97.8
 6    100.   99.3
 7     98.3  98.6
 8     98.7  98.6
 9     98.5  99.2
10    102.   99.2
# … with 537 more rows
…
Looking at the plot, there doesn’t appear to be a strong relationship here.

Model evaluation on testing data

bodytemp_aug_2 <- augment(bodytemp_fit, test_data)
bodytemp_aug_2 %>% select(BodyTemp, .pred)

# A tibble: 183 × 2
   BodyTemp .pred
      <dbl> <dbl>
 1     98.3  99.5
 2    101.   98.9
 3     98.8  99.0
 4     98.5  98.7
 5     98.1  98.5
 6     98.4  99.0
 7     99.5  99.5
 8     98.8  99.7
 9    102.   98.9
10     99.7  99.6
# … with 173 more rows
…
bodytemp_lm_workflow2 <- workflow() %>% #combine model and recipe to make workflow
  add_model(lm_mod) %>% 
  add_recipe(recipe_bodytemp2)

Data fitting

set.seed(626)
bodytemp_fit <- bodytemp_lm_workflow %>% 
  fit(data = train_data)
tidy(bodytemp_fit)

# A tibble: 32 × 5
   term                  estimate std.error statistic   p.value
   <chr>                    <dbl>     <dbl>     <dbl>     <dbl>
 1 (Intercept)            98.2        0.352   279.    0        
 2 SwollenLymphNodes_Yes  -0.104      0.108    -0.960 0.337    
 3 ChestCongestion_Yes     0.0566     0.114     0.496 0.620    
 4 ChillsSweats_Yes        0.279      0.151     1.84  0.0664   
 5 NasalCongestion_Yes    -0.213      0.133    -1.60  0.110    
 6 Sneeze_Yes             -0.400      0.116    -3.44  0.000627 
 7 Fatigue_Yes             0.375      0.187     2.00  0.0461   
 8 SubjectiveFever_Yes     0.517      0.122     4.25  0.0000259
 9 Headache_Yes           -0.0614     0.151    -0.406 0.685    
10 Weakness_Mild          -0.0473     0.226    -0.209 0.834    
# … with 22 more rows

Model evaluation on training data

bodytemp_aug3 <- augment(bodytemp_fit, train_data)
bodytemp_aug3 %>% select(BodyTemp, .pred)

# A tibble: 547 × 2
   BodyTemp .pred
      <dbl> <dbl>
 1     98.5  99.4
 2     98.6  98.5
 3     98.5  99.0
 4    101.   99.5
 5     98.5  97.8
 6    100.   99.3
 7     98.3  98.6
 8     98.7  98.6
 9     98.5  99.2
10    102.   99.2
# … with 537 more rows
…
There is a slight positive correlation but not really.

Model evaluation on testing data

bodytemp_aug_4 <- augment(bodytemp_fit, test_data)
bodytemp_aug_4 %>% select(BodyTemp, .pred)

# A tibble: 183 × 2
   BodyTemp .pred
      <dbl> <dbl>
 1     98.3  99.5
 2    101.   98.9
 3     98.8  99.0
 4     98.5  98.7
 5     98.1  98.5
 6     98.4  99.0
 7     99.5  99.5
 8     98.8  99.7
 9    102.   98.9
10     99.7  99.6
# … with 173 more rows
…
