My Data Analysis Portfolio - Data Analysis Exercise
…
saveRDS(summarytable, file = "dataanalysis_exercise/results/summarytable.rds")

This section added by Leah Lariscy

Loading the data

Here, I will read in the above RDS file

death_LML <- read_rds("dataanalysis_exercise/cleandata/cleandeathdata.rds")

Next, I will take a look at the data and check that there are no NAs again

tibble(death_LML)

# A tibble: 3,322 × 7
   `Reporting Area` `MMWR WEEK` AllAges AgesOver65 Ages45to64 Ages25to44 Ages1…¹
   <chr>                  <dbl>   <dbl>      <dbl>      <dbl>      <dbl>   <dbl>
 1 Albany, NY                 4      61         47         11          1       2
 2 Allentown, PA              4      30         22          4          3       1
 3 Elizabeth, NJ              4      17         12          2          3       0
 4 Erie, PA                   4      69         55         11          2       1
 5 Jersey City, NJ            4      23         19          4          0       0
 6 Newark, NJ                 4      46         27          9          8       0
 7 Pittsburgh, PA§            4      48         37         10          1       0
 8 Reading, PA                4      27         20          4          2       1
 9 Schenectady, NY            4      45         32         12          1       0
10 Scranton, PA               4      34         25          6          2       0
# … with 3,312 more rows, and abbreviated variable name ¹​Ages1to24
…
Further data cleaning

After looking at the data, I want to pull apart Reporting Area into State and City so I can then compare data across states. I am also removing the variable AllAges so that I can use pivot_longer and this column will cause issues when I am trying to plot. Also, I will easily be able to calculate this again, if needed, by grouping by city and state and using mutate to report the sum.

#Use the separate function
clean_death_LML <- death_LML %>% separate(col = `Reporting Area`, into = c("city","state"), sep = ", ") %>% select(!AllAges)

I need to use pivot_longer because I’d like to create a new variable age_group that all the age groups can go underneath. This way, it will be much easier to create plots from.

clean_death_long_LML <- clean_death_LML %>% pivot_longer(cols = c(AgesOver65,Ages45to64,Ages25to44,Ages1to24), names_to = "age_group") %>% rename(deaths = value)
tibble(clean_death_long_LML)

# A tibble: 13,288 × 5
   city      state `MMWR WEEK` age_group  deaths
   <chr>     <chr>       <dbl> <chr>       <dbl>
 1 Albany    NY              4 AgesOver65     47
 2 Albany    NY              4 Ages45to64     11
 3 Albany    NY              4 Ages25to44      1
 4 Albany    NY              4 Ages1to24       2
 5 Allentown PA              4 AgesOver65     22
 6 Allentown PA              4 Ages45to64      4
 7 Allentown PA              4 Ages25to44      3
 8 Allentown PA              4 Ages1to24       1
 9 Elizabeth NJ              4 AgesOver65     12
10 Elizabeth NJ              4 Ages45to64      2
# … with 13,278 more rows
…
